{
    "status": true,
    "message": "Customer's trademarks fetched sucessfully",
    "data": [
        {
            "id": "11940621622",
            "properties": {
                "active": "true",
                "applicant_city": "Stockholm",
                "applicant_country": "Sweden",
                "applicant_country_of_incorporation": null,
                "applicant_euipo_identifier": null,
                "applicant_first_name": null,
                "applicant_last_name": null,
                "applicant_legal_form": "AB",
                "applicant_legal_name": "digip AB",
                "applicant_name_normalized": "digip AB",
                "applicant_nationality": null,
                "applicant_phone": null,
                "applicant_postal_code": null,
                "applicant_state_of_incorporation": null,
                "applicant_street_address": "Luntmakargatan 26, Stockholm, 111 37",
                "applicant_type": "Business",
                "application_date": "2022-04-01",
                "application_language_code": "SV",
                "application_language_code_secondary": "EN",
                "application_no": "018680854",
                "brand": "#firstAPItrademark",
                "classes": "25",
                "designated_countries": [
                    "EM"
                ],
                "expiry_date": "2032-04-01",
                "goods_and_services": "25:Clothing.\n25:Clothing.",
                "group": null,
                "hs_createdate": "2024-01-29T12:58:42.756Z",
                "hs_lastmodifieddate": "2025-06-17T06:09:11.944Z",
                "hs_object_id": "11940621622",
                "hubspot_trademark_description": "#firstapitrademark",
                "logo": null,
                "madrid_agreement": null,
                "madrid_protocol": null,
                "mark_feature": "Word",
                "mark_image_category_code": null,
                "mark_image_category_kind": null,
                "mark_record_publication_identifier": "018680854",
                "parent_application_no": null,
                "parent_region": null,
                "previous_application_date": null,
                "previous_application_number": null,
                "priority": null,
                "region": "EM",
                "registration_date": "2022-07-16",
                "registration_number": "018680854",
                "registry_status": "Owner changes",
                "renewal": "2032-04-01",
                "status": "Registered",
                "trademark_business_types": null,
                "word_mark_specification_text": "#firstapitrademark",
                "groups": {
                    "Brands": "default",
                    "Logo": "default",
                    "3 group": "default"
                },
                "display_text": "#firstapitrademark",
                "class_numbers": [
                    "25"
                ]
            },
            "createdAt": "2024-01-29T12:58:42.756Z",
            "updatedAt": "2025-06-17T06:09:11.944Z",
            "archived": false
        },
        {
            "id": "5790785909",
            "properties": {
                "active": "true",
                "applicant_city": "Stockholm",
                "applicant_country": "Sweden",
                "applicant_country_of_incorporation": null,
                "applicant_euipo_identifier": null,
                "applicant_first_name": null,
                "applicant_last_name": null,
                "applicant_legal_form": "AB",
                "applicant_legal_name": "digip AB",
                "applicant_name_normalized": "digip AB",
                "applicant_nationality": null,
                "applicant_phone": null,
                "applicant_postal_code": null,
                "applicant_state_of_incorporation": null,
                "applicant_street_address": "Luntmakargatan 26, Stockholm, 111 37",
                "applicant_type": "Business",
                "application_date": "2019-09-30",
                "application_language_code": "SV",
                "application_language_code_secondary": "EN",
                "application_no": "018130799",
                "brand": null,
                "classes": "9;35;36;38;42;45",
                "designated_countries": [
                    "EM"
                ],
                "expiry_date": "2029-09-30",
                "goods_and_services": "9:Communication software; Computer Software for e -commerce; Computer software for mobile phones; Data Management Software;...",
                "group": null,
                "hs_createdate": "2023-04-03T10:49:36.080Z",
                "hs_lastmodifieddate": "2025-06-17T06:08:54.360Z",
                "hs_object_id": "5790785909",
                "hubspot_trademark_description": "digip logo temp test",
                "logo": "https://storage.googleapis.com/digip-public-resources/logos-v3/em/681/68101f66f53948a8d7ab7b66f185bc67.jpg",
                "madrid_agreement": null,
                "madrid_protocol": null,
                "mark_feature": "Mixed",
                "mark_image_category_code": "02.09.17\n25.05.94\n29.01.04\n29.01.08",
                "mark_image_category_kind": "Vienna",
                "mark_record_publication_identifier": "018130799",
                "parent_application_no": null,
                "parent_region": null,
                "previous_application_date": null,
                "previous_application_number": null,
                "priority": null,
                "region": "EM",
                "registration_date": "2020-01-15",
                "registration_number": "018130799",
                "registry_status": "Owner changes",
                "renewal": "2029-09-30",
                "status": "Published",
                "trademark_business_types": null,
                "word_mark_specification_text": "digip",
                "groups": {
                    "Brands": "default",
                    "Logo": "default",
                    "3 group": "default"
                },
                "display_text": "digip logo temp test",
                "class_numbers": [
                    "9",
                    "35",
                    "36",
                    "38",
                    "42",
                    "45"
                ]
            },
            "createdAt": "2023-04-03T10:49:36.080Z",
            "updatedAt": "2025-06-17T06:08:54.360Z",
            "archived": false
        },
        {
            "id": "5412210806",
            "properties": {
                "active": "true",
                "applicant_city": "Stockholm",
                "applicant_country": "Sweden",
                "applicant_country_of_incorporation": null,
                "applicant_euipo_identifier": null,
                "applicant_first_name": null,
                "applicant_last_name": null,
                "applicant_legal_form": "AB",
                "applicant_legal_name": "digip ab",
                "applicant_name_normalized": "digip ab",
                "applicant_nationality": null,
                "applicant_phone": null,
                "applicant_postal_code": null,
                "applicant_state_of_incorporation": null,
                "applicant_street_address": null,
                "applicant_type": "Business",
                "application_date": "2021-07-02",
                "application_language_code": "pt",
                "application_language_code_secondary": null,
                "application_no": "501636855",
                "brand": "Digip combined logo",
                "classes": "9;35;36;38;42;45",
                "designated_countries": [
                    "BR"
                ],
                "expiry_date": "2031-07-02",
                "goods_and_services": "9:Communication software; Computer e-commerce software; Computer software for mobile phones; Data management software;...",
                "group": null,
                "hs_createdate": "2023-03-03T11:42:02.690Z",
                "hs_lastmodifieddate": "2025-06-17T06:08:53.180Z",
                "hs_object_id": "5412210806",
                "hubspot_trademark_description": "digip logo",
                "logo": "https://storage.googleapis.com/digip-public-resources/logos-v3/br/19e/19ef53f5bbf59cfc179bd27b470cf93b.jpg",
                "madrid_agreement": null,
                "madrid_protocol": null,
                "mark_feature": "Unknown",
                "mark_image_category_code": "27.05.09\n02.09.14\n29.01.12",
                "mark_image_category_kind": "Vienna",
                "mark_record_publication_identifier": "501636855",
                "parent_application_no": "1636855",
                "parent_region": "WO",
                "previous_application_date": null,
                "previous_application_number": null,
                "priority": null,
                "region": "BR",
                "registration_date": "2023-12-26",
                "registration_number": null,
                "registry_status": "Registro de marca em vigor (Madri)",
                "renewal": "2031-07-02",
                "status": "Registered",
                "trademark_business_types": null,
                "word_mark_specification_text": "digip",
                "groups": {
                    "Brands": "default",
                    "Logo": "default",
                    "3 group": "default"
                },
                "display_text": "digip logo BR",
                "class_numbers": [
                    "9",
                    "35",
                    "36",
                    "38",
                    "42",
                    "45"
                ]
            },
            "createdAt": "2023-03-03T11:42:02.690Z",
            "updatedAt": "2025-06-17T06:08:53.180Z",
            "archived": false
        },
        {
            "id": "6168364857",
            "properties": {
                "active": "true",
                "applicant_city": "Stockholm",
                "applicant_country": "Sweden",
                "applicant_country_of_incorporation": null,
                "applicant_euipo_identifier": null,
                "applicant_first_name": null,
                "applicant_last_name": null,
                "applicant_legal_form": "AB",
                "applicant_legal_name": "digip ab",
                "applicant_name_normalized": "digip ab",
                "applicant_nationality": null,
                "applicant_phone": null,
                "applicant_postal_code": null,
                "applicant_state_of_incorporation": null,
                "applicant_street_address": "Luntmakargatan 26, SE-111 37 Stockholm, SE",
                "applicant_type": "Business",
                "application_date": "2021-07-02",
                "application_language_code": "EN",
                "application_language_code_secondary": null,
                "application_no": "1636855",
                "brand": null,
                "classes": "9;35;36;38;42;45",
                "designated_countries": [
                    "JP",
                    "RU",
                    "BR",
                    "CN",
                    "NO",
                    "SG",
                    "CH",
                    "AU",
                    "US",
                    "IN",
                    "CA",
                    "KR",
                    "WO"
                ],
                "expiry_date": "2031-07-02",
                "goods_and_services": "9:Communication software; computer e-commerce software; computer software for mobile phones; data management software;...",
                "group": null,
                "hs_createdate": "2023-05-02T07:42:27.100Z",
                "hs_lastmodifieddate": "2025-06-17T06:08:59.106Z",
                "hs_object_id": "6168364857",
                "hubspot_trademark_description": "digip logo",
                "logo": "https://storage.googleapis.com/digip-public-resources/logos-v3/wo/e8a/e8aa60a6eff032ab96dc76a0074328bd.jpg",
                "madrid_agreement": null,
                "madrid_protocol": "AU\nBR\nCA\nCH\nCN\nIN\nJP\nKR\nNO\nRU\nSG\nUS",
                "mark_feature": "Mixed",
                "mark_image_category_code": "02.09.14\n27.05.09\n29.01.12",
                "mark_image_category_kind": "Vienna",
                "mark_record_publication_identifier": "1636855",
                "parent_application_no": null,
                "parent_region": null,
                "previous_application_date": "2019-09-30",
                "previous_application_number": "EM 018130799",
                "priority": null,
                "region": "WO",
                "registration_date": "2021-07-02",
                "registration_number": "1636855",
                "registry_status": "Registration published",
                "renewal": "2031-07-02",
                "status": "Registered",
                "trademark_business_types": null,
                "word_mark_specification_text": "digip",
                "groups": {
                    "Brands": "default",
                    "Logo": "default",
                    "3 group": "default"
                },
                "display_text": "digip logo WO",
                "class_numbers": [
                    "9",
                    "35",
                    "36",
                    "38",
                    "42",
                    "45"
                ]
            },
            "createdAt": "2023-05-02T07:42:27.100Z",
            "updatedAt": "2025-06-17T06:08:59.106Z",
            "archived": false
        },
        {
            "id": "6169859943",
            "properties": {
                "active": "true",
                "applicant_city": "Stockholm",
                "applicant_country": "Sweden",
                "applicant_country_of_incorporation": null,
                "applicant_euipo_identifier": null,
                "applicant_first_name": null,
                "applicant_last_name": null,
                "applicant_legal_form": "AB",
                "applicant_legal_name": "digip ab",
                "applicant_name_normalized": "digip ab",
                "applicant_nationality": null,
                "applicant_phone": null,
                "applicant_postal_code": null,
                "applicant_state_of_incorporation": null,
                "applicant_street_address": "Luntmakargatan 26; SE-111 37 Stockholm, SWEDEN",
                "applicant_type": "Business",
                "application_date": "2021-07-02",
                "application_language_code": "EN",
                "application_language_code_secondary": null,
                "application_no": "2240631",
                "brand": "Digip combined logo",
                "classes": "9;35;36;38;42;45",
                "designated_countries": [
                    "AU"
                ],
                "expiry_date": "2031-07-02",
                "goods_and_services": "9:Communication software; computer e-commerce software; computer software for mobile phones; data management...",
                "group": null,
                "hs_createdate": "2023-05-02T08:10:26.997Z",
                "hs_lastmodifieddate": "2025-06-17T06:09:01.281Z",
                "hs_object_id": "6169859943",
                "hubspot_trademark_description": "digip logo",
                "logo": "https://storage.googleapis.com/digip-public-resources/logos-v3/au/a44/a441a6ddce1a4b15a8811a145694aa6e.jpg",
                "madrid_agreement": null,
                "madrid_protocol": null,
                "mark_feature": "Unknown",
                "mark_image_category_code": null,
                "mark_image_category_kind": null,
                "mark_record_publication_identifier": "2240631",
                "parent_application_no": "1636855",
                "parent_region": "WO",
                "previous_application_date": null,
                "previous_application_number": null,
                "priority": null,
                "region": "AU",
                "registration_date": "2022-05-17",
                "registration_number": "2240631",
                "registry_status": "Protected: Registered/protected",
                "renewal": "2031-07-02",
                "status": "Registered",
                "trademark_business_types": null,
                "word_mark_specification_text": "DIGIP",
                "groups": {
                    "Brands": "default",
                    "Logo": "test logo",
                    "3 group": "default"
                },
                "display_text": "digip logo AU",
                "class_numbers": [
                    "9",
                    "35",
                    "36",
                    "38",
                    "42",
                    "45"
                ]
            },
            "createdAt": "2023-05-02T08:10:26.997Z",
            "updatedAt": "2025-06-17T06:09:01.281Z",
            "archived": false
        },
        {
            "id": "6172364912",
            "properties": {
                "active": "true",
                "applicant_city": "Stockholm",
                "applicant_country": "Sweden",
                "applicant_country_of_incorporation": null,
                "applicant_euipo_identifier": null,
                "applicant_first_name": null,
                "applicant_last_name": null,
                "applicant_legal_form": "AB",
                "applicant_legal_name": "digip ab",
                "applicant_name_normalized": "digip ab",
                "applicant_nationality": null,
                "applicant_phone": null,
                "applicant_postal_code": null,
                "applicant_state_of_incorporation": null,
                "applicant_street_address": "Luntmakargatan 26 11137 STOCKHOLM SE",
                "applicant_type": "Business",
                "application_date": "2022-01-06",
                "application_language_code": "NO",
                "application_language_code_secondary": null,
                "application_no": "202200054",
                "brand": "Digip combined logo",
                "classes": "9;35;36;38;42;45",
                "designated_countries": [
                    "NO"
                ],
                "expiry_date": "2031-07-02",
                "goods_and_services": "9:Communication software; computer e-commerce software; computer software for mobile phones; ...",
                "group": null,
                "hs_createdate": "2023-05-02T08:29:31.750Z",
                "hs_lastmodifieddate": "2025-06-17T06:09:02.694Z",
                "hs_object_id": "6172364912",
                "hubspot_trademark_description": "digip logo",
                "logo": "https://storage.googleapis.com/digip-public-resources/logos-v3/no/7f7/7f72680aa1c65ee5cd5f354c13a08fe3.jpg",
                "madrid_agreement": null,
                "madrid_protocol": null,
                "mark_feature": "Mixed",
                "mark_image_category_code": "02.09.14",
                "mark_image_category_kind": "Vienna",
                "mark_record_publication_identifier": "202200054",
                "parent_application_no": "1636855",
                "parent_region": "WO",
                "previous_application_date": null,
                "previous_application_number": null,
                "priority": null,
                "region": "NO",
                "registration_date": "2022-09-26",
                "registration_number": "1636855",
                "registry_status": "Deleted from the national database",
                "renewal": "2031-07-02",
                "status": "Registered",
                "trademark_business_types": null,
                "word_mark_specification_text": "digip",
                "groups": {
                    "Brands": "default",
                    "Logo": "default",
                    "3 group": "default"
                },
                "display_text": "digip logo NO",
                "class_numbers": [
                    "9",
                    "35",
                    "36",
                    "38",
                    "42",
                    "45"
                ]
            },
            "createdAt": "2023-05-02T08:29:31.750Z",
            "updatedAt": "2025-06-17T06:09:02.694Z",
            "archived": false
        },
        {
            "id": "6172780608",
            "properties": {
                "active": "true",
                "applicant_city": "Stockholm",
                "applicant_country": "Sweden",
                "applicant_country_of_incorporation": null,
                "applicant_euipo_identifier": null,
                "applicant_first_name": null,
                "applicant_last_name": null,
                "applicant_legal_form": "AB",
                "applicant_legal_name": "digip ab",
                "applicant_name_normalized": "digip ab",
                "applicant_nationality": null,
                "applicant_phone": null,
                "applicant_postal_code": null,
                "applicant_state_of_incorporation": null,
                "applicant_street_address": "Luntmakargatan 26, SE-111 37 Stockholm, SE",
                "applicant_type": "Business",
                "application_date": "2021-07-02",
                "application_language_code": "EN",
                "application_language_code_secondary": null,
                "application_no": "79330184",
                "brand": "Digip combined logo",
                "classes": "9;35;36;38;42;45",
                "designated_countries": [
                    "US"
                ],
                "expiry_date": "2033-05-16",
                "goods_and_services": "38:Communication services, namely, electronic transmission of data and...",
                "group": null,
                "hs_createdate": "2023-05-02T08:29:46.107Z",
                "hs_lastmodifieddate": "2025-06-17T06:09:02.695Z",
                "hs_object_id": "6172780608",
                "hubspot_trademark_description": "digip logo",
                "logo": "https://storage.googleapis.com/digip-public-resources/logos-v3/uspto/c89/c89b4fcc1d011ba635cb276530cd1415.jpg",
                "madrid_agreement": null,
                "madrid_protocol": null,
                "mark_feature": "Mixed",
                "mark_image_category_code": "02.11.15",
                "mark_image_category_kind": "Vienna",
                "mark_record_publication_identifier": "79330184",
                "parent_application_no": "1636855",
                "parent_region": "WO",
                "previous_application_date": null,
                "previous_application_number": null,
                "priority": null,
                "region": "US",
                "registration_date": "2023-05-16",
                "registration_number": "7051121",
                "registry_status": "Registered",
                "renewal": "2033-05-16",
                "status": "Registered",
                "trademark_business_types": null,
                "word_mark_specification_text": "DIGIP",
                "groups": {
                    "Brands": "North America",
                    "Logo": "default",
                    "3 group": "default"
                },
                "display_text": "digip logo US",
                "class_numbers": [
                    "9",
                    "35",
                    "36",
                    "38",
                    "42",
                    "45"
                ]
            },
            "createdAt": "2023-05-02T08:29:46.107Z",
            "updatedAt": "2025-06-17T06:09:02.695Z",
            "archived": false
        },
        {
            "id": "6172907413",
            "properties": {
                "active": null,
                "applicant_city": "Stockholm",
                "applicant_country": "Sweden",
                "applicant_country_of_incorporation": null,
                "applicant_euipo_identifier": null,
                "applicant_first_name": null,
                "applicant_last_name": null,
                "applicant_legal_form": "AB",
                "applicant_legal_name": "digip AB",
                "applicant_name_normalized": "digip ab",
                "applicant_nationality": null,
                "applicant_phone": null,
                "applicant_postal_code": null,
                "applicant_state_of_incorporation": null,
                "applicant_street_address": null,
                "applicant_type": "Business",
                "application_date": "2021-07-02",
                "application_language_code": null,
                "application_language_code_secondary": null,
                "application_no": "w1636855",
                "brand": "Digip combined logo",
                "classes": "9;35;36;38;42;45",
                "designated_countries": [],
                "expiry_date": null,
                "goods_and_services": "[]",
                "group": null,
                "hs_createdate": "2023-05-02T08:29:56.251Z",
                "hs_lastmodifieddate": "2025-05-19T13:48:24.610Z",
                "hs_object_id": "6172907413",
                "hubspot_trademark_description": "digip logo",
                "logo": "https://storage.googleapis.com/digip-public-resources/trademarks/1680518974.PNG",
                "madrid_agreement": null,
                "madrid_protocol": null,
                "mark_feature": "Mixed",
                "mark_image_category_code": null,
                "mark_image_category_kind": null,
                "mark_record_publication_identifier": null,
                "parent_application_no": "1636855",
                "parent_region": "WO",
                "previous_application_date": null,
                "previous_application_number": null,
                "priority": null,
                "region": "CH",
                "registration_date": null,
                "registration_number": null,
                "registry_status": "Registered",
                "renewal": null,
                "status": "Filed",
                "trademark_business_types": null,
                "word_mark_specification_text": "digip",
                "groups": {
                    "Brands": "Test TT %6",
                    "Logo": "test logo",
                    "3 group": "default"
                },
                "display_text": "digip logo CH",
                "class_numbers": [
                    "9",
                    "35",
                    "36",
                    "38",
                    "42",
                    "45"
                ]
            },
            "createdAt": "2023-05-02T08:29:56.251Z",
            "updatedAt": "2025-05-19T13:48:24.610Z",
            "archived": false
        }
    ],
    "meta": [],
    "prev_page_query": null,
    "next_page_query": "per_page=8&page=2",
    "path": "per_page=8",
    "current_page": 1,
    "per_page": 8,
    "pages": 3,
    "to": 8,
    "total": 19
}